{
  "name": "gitlabhq",
  "metadata": {
    "version": 2,
    "merge_request_count": 3609,
    "issue_count": 6722,
    "pipelines_count": 11
  },
  "branch": "10-0-stable",
  "branch_search": "stable",
  "commit_sha": "8f9beefa",
  "commit_sha_signed": "6526e91f",
  "compare_commits_sha": ["aec887ab", "5bfb7558"],
  "file_blame_path": "spec%2fmodels%2fproject_spec%2erb",
  "file_raw_path": "doc%2fapi%2fprojects%2emd",
  "file_rendered_path": "CHANGELOG%2emd",
  "file_source_path": "fixtures%2femojis%2findex%2ejson",
  "dir_path": "spec%2Flib%2Fgitlab",
  "git_push_data": {
    "branch_current_head_sha": "8606c89683c913641243fc667edeb90600fe1a0e",
    "branch_new_head_sha": "8bcb4fd6f5780ebe9dc1ec80904b060b89a937d2",
    "branch_name": "12-1-auto-deploy-20190714"
  },
  "pipeline_sha": "bca0bc9e5ed1da25aff3d407eddfc0fe1606ec2b",
  "mr_commits_iid": "10495",
  "mr_discussions_iid": "6958",
  "mr_changes_iid": "10495",
  "search": {
    "projects": ["gitlab", "username", "merge", "remove", "test", "project", "public"],
    "issues": ["gitlab", "bot", "push", "repo", "error", "database", "issue"],
    "commits": ["fix", "add", "gitlab", "update", "remove", "test", "project"],
    "merge_requests": ["the", "test", "gitlab", "project", "merge", "user", "login"],
    "milestones": ["2.6","3.1", "4.0", "5.2", "6.0", "7.12", "8.0"],
    "blobs": ["test", "the", "and", "gitlab", "for", "while", "add"],
    "users": ["root", "test", "john", "doe", "jane", "gitlab", "bot"],
    "notes": ["test", "gitlab", "the", "and", "merge", "user", "issue"]
  },
  "issue_iid": "4218"
}
